{
	"name": "netadmin",
	"description": "NetAdmin system",
	"copyright": "Copyright © 2014, xandr84",
	"authors": ["xandr84"],
	"dependencies": {
          "netadmin:netlib": "~master",
          "netadmin:actor": "~master",
          "netadmin:admin": "~master",
          "netadmin:proxy": "~master"
	},
    "subPackages": [
        "./lib/",
        "./actor/",
        "./admin/",
        "./proxy/"
    ]
}
